I/O Register Combining Report
Microsemi Corporation - Microsemi Libero Software Release v11.9 SP2 (Version 11.9.2.1)
Date: Wed Jan 23 17:06:50 2019

I/O Register Combining Summary
+
+

I/O DDR Register Combining Summary
+
+

